module ntpgo

go 1.21.4

require (
	github.com/beevik/ntp v1.3.0
	github.com/morgulbrut/color256 v0.0.0-20210301135729-129d0bff979e
)

require (
	golang.org/x/net v0.11.0 // indirect
	golang.org/x/sys v0.10.0 // indirect
)
