module retroclock

go 1.21.4

require github.com/inancgumus/screen v0.0.0-20190314163918-06e984b86ed3

require (
	golang.org/x/crypto v0.26.0 // indirect
	golang.org/x/sys v0.23.0 // indirect
	golang.org/x/term v0.23.0 // indirect
)
