module smolltools/voltdiv

go 1.21.4

require (
	github.com/akamensky/argparse v1.4.0
	github.com/fatih/color v1.18.0
	github.com/jedib0t/go-pretty v4.3.0+incompatible
)

require (
	github.com/asaskevich/govalidator v0.0.0-20230301143203-a9d515a09cc2 // indirect
	github.com/go-openapi/errors v0.22.0 // indirect
	github.com/go-openapi/strfmt v0.23.0 // indirect
	github.com/google/uuid v1.6.0 // indirect
	github.com/mattn/go-colorable v0.1.13 // indirect
	github.com/mattn/go-isatty v0.0.20 // indirect
	github.com/mattn/go-runewidth v0.0.16 // indirect
	github.com/mitchellh/mapstructure v1.5.0 // indirect
	github.com/oklog/ulid v1.3.1 // indirect
	github.com/rivo/uniseg v0.2.0 // indirect
	go.mongodb.org/mongo-driver v1.14.0 // indirect
	golang.org/x/sys v0.25.0 // indirect
)
